<svg width="22" height="22" viewBox="0 0 22 22" fill="none" xmlns="http://www.w3.org/2000/svg">
<path fill-rule="evenodd" clip-rule="evenodd" d="M8.9375 16.1562C8.9375 15.0172 9.86091 14.0938 11 14.0938C12.1391 14.0938 13.0625 15.0172 13.0625 16.1562C13.0625 17.2953 12.1391 18.2188 11 18.2188C9.86091 18.2188 8.9375 17.2953 8.9375 16.1562Z" fill="#DF842F"/>
<path fill-rule="evenodd" clip-rule="evenodd" d="M11 6.875C11.5695 6.875 12.0312 7.33671 12.0312 7.90625V14.4375C12.0312 15.007 11.5695 15.4688 11 15.4688C10.4305 15.4688 9.96875 15.007 9.96875 14.4375V7.90625C9.96875 7.33671 10.4305 6.875 11 6.875Z" fill="#DF842F"/>
<path fill-rule="evenodd" clip-rule="evenodd" d="M11 2.40625C10.3618 2.40625 9.74979 2.65977 9.29853 3.11102C8.84727 3.56228 8.59375 4.17432 8.59375 4.8125V13.301C8.59375 13.5534 8.50169 13.7914 8.34282 13.9753C7.93306 14.4746 7.67216 15.0793 7.59024 15.7203C7.50747 16.3679 7.61083 17.0257 7.88824 17.6167C8.16565 18.2077 8.60563 18.7075 9.1567 19.0576C9.70777 19.4077 10.3471 19.5936 11 19.5936C11.6529 19.5936 12.2923 19.4076 12.8433 19.0575C13.3944 18.7074 13.8344 18.2076 14.1118 17.6166C14.3892 17.0256 14.4925 16.3678 14.4098 15.7202C14.3277 15.0786 14.0664 14.4732 13.6558 13.9736C13.4978 13.7899 13.4063 13.5526 13.4063 13.301V4.8125C13.4063 4.17432 13.1527 3.56228 12.7015 3.11102C12.2502 2.65977 11.6382 2.40625 11 2.40625ZM15.4688 12.9498V4.8125C15.4688 3.62731 14.9979 2.49067 14.1599 1.65262C13.3218 0.814563 12.1852 0.34375 11 0.34375C9.81482 0.34375 8.67817 0.814563 7.84012 1.65262C7.00207 2.49067 6.53125 3.62731 6.53125 4.8125V12.9498C6.00041 13.6896 5.66034 14.5515 5.54438 15.4588C5.41195 16.495 5.57733 17.5474 6.02119 18.493C6.46504 19.4386 7.16901 20.2383 8.05072 20.7985C8.93244 21.3586 9.95544 21.6561 11 21.6561C12.0446 21.6561 13.0676 21.3586 13.9493 20.7984C14.8311 20.2383 15.535 19.4386 15.9788 18.493C16.4227 17.5473 16.5881 16.4949 16.4556 15.4587C16.3396 14.5515 15.9996 13.6896 15.4688 12.9498Z" fill="#DF842F"/>
</svg>
